%YAML 1.1
%TAG !u! tag:unity3d.com,2011:
--- !u!1 &116668
GameObject:
  m_ObjectHideFlags: 0
  m_PrefabParentObject: {fileID: 0}
  m_PrefabInternal: {fileID: 100100000}
  serializedVersion: 5
  m_Component:
  - component: {fileID: 448864}
  - component: {fileID: 11451624}
  m_Layer: 4
  m_Name: Ocean
  m_TagString: Ocean
  m_Icon: {fileID: 2800000, guid: 04e885ab63bc1f74eb62634b62e06d19, type: 3}
  m_NavMeshLayer: 0
  m_StaticEditorFlags: 0
  m_IsActive: 1
--- !u!1 &147182
GameObject:
  m_ObjectHideFlags: 0
  m_PrefabParentObject: {fileID: 0}
  m_PrefabInternal: {fileID: 100100000}
  serializedVersion: 5
  m_Component:
  - component: {fileID: 460224}
  - component: {fileID: 3311998}
  - component: {fileID: 2361960}
  m_Layer: 4
  m_Name: sea_disc2
  m_TagString: Untagged
  m_Icon: {fileID: 0}
  m_NavMeshLayer: 0
  m_StaticEditorFlags: 0
  m_IsActive: 0
--- !u!1 &148120
GameObject:
  m_ObjectHideFlags: 0
  m_PrefabParentObject: {fileID: 0}
  m_PrefabInternal: {fileID: 100100000}
  serializedVersion: 5
  m_Component:
  - component: {fileID: 431076}
  - component: {fileID: 3352226}
  - component: {fileID: 2373824}
  m_Layer: 4
  m_Name: sea_disc3
  m_TagString: Untagged
  m_Icon: {fileID: 0}
  m_NavMeshLayer: 0
  m_StaticEditorFlags: 0
  m_IsActive: 0
--- !u!1 &199328
GameObject:
  m_ObjectHideFlags: 0
  m_PrefabParentObject: {fileID: 0}
  m_PrefabInternal: {fileID: 100100000}
  serializedVersion: 5
  m_Component:
  - component: {fileID: 417842}
  - component: {fileID: 3360450}
  - component: {fileID: 2360488}
  m_Layer: 4
  m_Name: sea_disc1
  m_TagString: Untagged
  m_Icon: {fileID: 0}
  m_NavMeshLayer: 0
  m_StaticEditorFlags: 0
  m_IsActive: 0
--- !u!4 &417842
Transform:
  m_ObjectHideFlags: 1
  m_PrefabParentObject: {fileID: 0}
  m_PrefabInternal: {fileID: 100100000}
  m_GameObject: {fileID: 199328}
  m_LocalRotation: {x: 0, y: 0, z: 0, w: 1}
  m_LocalPosition: {x: 0, y: 0, z: 0}
  m_LocalScale: {x: 1, y: 1, z: 1}
  m_Children: []
  m_Father: {fileID: 448864}
  m_RootOrder: 0
  m_LocalEulerAnglesHint: {x: 0, y: 0, z: 0}
--- !u!4 &431076
Transform:
  m_ObjectHideFlags: 1
  m_PrefabParentObject: {fileID: 0}
  m_PrefabInternal: {fileID: 100100000}
  m_GameObject: {fileID: 148120}
  m_LocalRotation: {x: 0.000000021855694, y: 0, z: 0, w: 1}
  m_LocalPosition: {x: 0, y: 0, z: 0}
  m_LocalScale: {x: 1, y: 1, z: 1}
  m_Children: []
  m_Father: {fileID: 448864}
  m_RootOrder: 2
  m_LocalEulerAnglesHint: {x: 0, y: 0, z: 0}
--- !u!4 &448864
Transform:
  m_ObjectHideFlags: 1
  m_PrefabParentObject: {fileID: 0}
  m_PrefabInternal: {fileID: 100100000}
  m_GameObject: {fileID: 116668}
  m_LocalRotation: {x: 0, y: 0, z: 0, w: 1}
  m_LocalPosition: {x: 0, y: 0, z: 0}
  m_LocalScale: {x: 1, y: 1, z: 1}
  m_Children:
  - {fileID: 417842}
  - {fileID: 460224}
  - {fileID: 431076}
  m_Father: {fileID: 0}
  m_RootOrder: 0
  m_LocalEulerAnglesHint: {x: 0, y: 0, z: 0}
--- !u!4 &460224
Transform:
  m_ObjectHideFlags: 1
  m_PrefabParentObject: {fileID: 0}
  m_PrefabInternal: {fileID: 100100000}
  m_GameObject: {fileID: 147182}
  m_LocalRotation: {x: 0.000000021855694, y: 0, z: 0, w: 1}
  m_LocalPosition: {x: 0, y: 0, z: 0}
  m_LocalScale: {x: 1, y: 1, z: 1}
  m_Children: []
  m_Father: {fileID: 448864}
  m_RootOrder: 1
  m_LocalEulerAnglesHint: {x: 0, y: 0, z: 0}
--- !u!23 &2360488
MeshRenderer:
  m_ObjectHideFlags: 1
  m_PrefabParentObject: {fileID: 0}
  m_PrefabInternal: {fileID: 100100000}
  m_GameObject: {fileID: 199328}
  m_Enabled: 1
  m_CastShadows: 1
  m_ReceiveShadows: 1
  m_DynamicOccludee: 1
  m_MotionVectors: 1
  m_LightProbeUsage: 1
  m_ReflectionProbeUsage: 1
  m_RenderingLayerMask: 4294967295
  m_Materials:
  - {fileID: 2100000, guid: c541ac636f7ff4f20aeb8747a4729d2b, type: 2}
  m_StaticBatchInfo:
    firstSubMesh: 0
    subMeshCount: 0
  m_StaticBatchRoot: {fileID: 0}
  m_ProbeAnchor: {fileID: 0}
  m_LightProbeVolumeOverride: {fileID: 0}
  m_ScaleInLightmap: 1
  m_PreserveUVs: 0
  m_IgnoreNormalsForChartDetection: 0
  m_ImportantGI: 0
  m_StitchLightmapSeams: 0
  m_SelectedEditorRenderState: 3
  m_MinimumChartSize: 4
  m_AutoUVMaxDistance: 0.5
  m_AutoUVMaxAngle: 89
  m_LightmapParameters: {fileID: 0}
  m_SortingLayerID: 0
  m_SortingLayer: 0
  m_SortingOrder: 0
--- !u!23 &2361960
MeshRenderer:
  m_ObjectHideFlags: 1
  m_PrefabParentObject: {fileID: 0}
  m_PrefabInternal: {fileID: 100100000}
  m_GameObject: {fileID: 147182}
  m_Enabled: 1
  m_CastShadows: 1
  m_ReceiveShadows: 1
  m_DynamicOccludee: 1
  m_MotionVectors: 1
  m_LightProbeUsage: 1
  m_ReflectionProbeUsage: 1
  m_RenderingLayerMask: 4294967295
  m_Materials:
  - {fileID: 2100000, guid: c541ac636f7ff4f20aeb8747a4729d2b, type: 2}
  m_StaticBatchInfo:
    firstSubMesh: 0
    subMeshCount: 0
  m_StaticBatchRoot: {fileID: 0}
  m_ProbeAnchor: {fileID: 0}
  m_LightProbeVolumeOverride: {fileID: 0}
  m_ScaleInLightmap: 1
  m_PreserveUVs: 0
  m_IgnoreNormalsForChartDetection: 0
  m_ImportantGI: 0
  m_StitchLightmapSeams: 0
  m_SelectedEditorRenderState: 3
  m_MinimumChartSize: 4
  m_AutoUVMaxDistance: 0.5
  m_AutoUVMaxAngle: 89
  m_LightmapParameters: {fileID: 0}
  m_SortingLayerID: 0
  m_SortingLayer: 0
  m_SortingOrder: 0
--- !u!23 &2373824
MeshRenderer:
  m_ObjectHideFlags: 1
  m_PrefabParentObject: {fileID: 0}
  m_PrefabInternal: {fileID: 100100000}
  m_GameObject: {fileID: 148120}
  m_Enabled: 1
  m_CastShadows: 1
  m_ReceiveShadows: 1
  m_DynamicOccludee: 1
  m_MotionVectors: 1
  m_LightProbeUsage: 1
  m_ReflectionProbeUsage: 1
  m_RenderingLayerMask: 4294967295
  m_Materials:
  - {fileID: 2100000, guid: c541ac636f7ff4f20aeb8747a4729d2b, type: 2}
  m_StaticBatchInfo:
    firstSubMesh: 0
    subMeshCount: 0
  m_StaticBatchRoot: {fileID: 0}
  m_ProbeAnchor: {fileID: 0}
  m_LightProbeVolumeOverride: {fileID: 0}
  m_ScaleInLightmap: 1
  m_PreserveUVs: 0
  m_IgnoreNormalsForChartDetection: 0
  m_ImportantGI: 0
  m_StitchLightmapSeams: 0
  m_SelectedEditorRenderState: 3
  m_MinimumChartSize: 4
  m_AutoUVMaxDistance: 0.5
  m_AutoUVMaxAngle: 89
  m_LightmapParameters: {fileID: 0}
  m_SortingLayerID: 0
  m_SortingLayer: 0
  m_SortingOrder: 0
--- !u!33 &3311998
MeshFilter:
  m_ObjectHideFlags: 1
  m_PrefabParentObject: {fileID: 0}
  m_PrefabInternal: {fileID: 100100000}
  m_GameObject: {fileID: 147182}
  m_Mesh: {fileID: 4300002, guid: 4cb4ed597c9011d4ca5753935141a10c, type: 3}
--- !u!33 &3352226
MeshFilter:
  m_ObjectHideFlags: 1
  m_PrefabParentObject: {fileID: 0}
  m_PrefabInternal: {fileID: 100100000}
  m_GameObject: {fileID: 148120}
  m_Mesh: {fileID: 4300002, guid: 63f3674ee169a2b4abc7387341254225, type: 3}
--- !u!33 &3360450
MeshFilter:
  m_ObjectHideFlags: 1
  m_PrefabParentObject: {fileID: 0}
  m_PrefabInternal: {fileID: 100100000}
  m_GameObject: {fileID: 199328}
  m_Mesh: {fileID: 4300002, guid: 479ca8803e8615c4dbb73678c66cda4a, type: 3}
--- !u!114 &11451624
MonoBehaviour:
  m_ObjectHideFlags: 1
  m_PrefabParentObject: {fileID: 0}
  m_PrefabInternal: {fileID: 100100000}
  m_GameObject: {fileID: 116668}
  m_Enabled: 1
  m_EditorHideFlags: 0
  m_Script: {fileID: 11500000, guid: c154aa817ceb43048bc1710ca3a095af, type: 3}
  m_Name: 
  m_EditorClassIdentifier: 
  _mode: 0
  _gridMode: 0
  _gridRes: 0
  _name: ocean1
  spreadAlongFrames: 1
  everyXframe: 3
  reflrefrXframe: 3
  fr1: 0
  fr2: 0
  fr2B: 1
  fr3: 1
  fr4: 2
  farLodOffset: -12.1
  ifoamStrength: 8
  ifoamWidth: 1
  foamDuration: 0.4
  shaderLod: 0
  useShaderLods: 1
  numberLods: 3
  lowShaderLod: 4
  foamUV: 1
  bumpUV: 2
  loadSun: 1
  fixedUpdate: 0
  forceDepth: 1
  lodSkipFrames: 4
  canCheckBuoyancyNow: []
  renderQueue: 2521
  defaultLOD: 5
  fixedTiles: 0
  discSize: 0
  sTilesLod: 1
  width: 64
  height: 64
  renderTexWidth: 512
  renderTexHeight: 256
  scale: 16
  speed: 0.93
  wakeDistance: 10.01
  waveDistanceFactor: 1
  size: {x: 512, y: 30, z: 512}
  tiles: 11
  pWindx: 20
  pWindy: 30
  choppy_scale: 6
  material: {fileID: 2100000, guid: c541ac636f7ff4f20aeb8747a4729d2b, type: 2}
  material1: {fileID: 2100000, guid: 286bdae10ef0f8a4fbd0694f10059535, type: 2}
  material2: {fileID: 2100000, guid: 48d480b13ed078d4f8ce049d47634182, type: 2}
  mat:
  - {fileID: 2100000, guid: c541ac636f7ff4f20aeb8747a4729d2b, type: 2}
  - {fileID: 2100000, guid: 286bdae10ef0f8a4fbd0694f10059535, type: 2}
  - {fileID: 2100000, guid: 48d480b13ed078d4f8ce049d47634182, type: 2}
  hasShore: 1
  hasShore1: 0
  hasFog: 1
  hasFog1: 1
  hasFog2: 1
  distCan1: 0
  distCan2: 1
  cancellationDistance: 2000
  followMainCamera: 1
  m_ClipPlaneOffset: 0.07
  renderLayers:
    m_Bits: 257
  player: {fileID: 0}
  sun: {fileID: 0}
  SunDir: {x: -0.16212228, y: -0.35836804, z: -0.919396, w: 0}
  specularity: 0.373
  specPower: 0.891
  reflectivity: 1
  translucency: 1
  shoreDistance: 4
  shoreStrength: 1.5
  foamFactor: 1.1
  surfaceColor:
    r: 0.54217124
    g: 0.66198534
    b: 0.8014706
    a: 1
  waterColor:
    r: 0.051903106
    g: 0.22748075
    b: 0.4705882
    a: 1
  fakeWaterColor:
    r: 0
    g: 0.13235295
    b: 0.07210952
    a: 1
  oceanShader: {fileID: 4800000, guid: 01170220c6c9d45f7ae3b4fef8af5fdb, type: 3}
  renderReflection: 1
  renderRefraction: 1
  shaderAlpha: 1
  dynamicWaves: 0
  humidity: 0.104
  mist: {fileID: 100002, guid: de156c31f51a89643aa9c0256677e1dc, type: 2}
  mistLow: {fileID: 100000, guid: 8d2d7b990b9ce78439acae0d40a9dbac, type: 2}
  mistClouds: {fileID: 160538, guid: dfda8c2389014254a9760829880e1399, type: 2}
  mistEnabled: 1
--- !u!1001 &100100000
Prefab:
  m_ObjectHideFlags: 1
  serializedVersion: 2
  m_Modification:
    m_TransformParent: {fileID: 0}
    m_Modifications:
    - target: {fileID: 0}
      propertyPath: m_Materials.Array.data[0]
      value: 
      objectReference: {fileID: 2100000, guid: 389558ead671e174b8afa16e0d7dce1d, type: 2}
    - target: {fileID: 0}
      propertyPath: m_IsActive
      value: 0
      objectReference: {fileID: 0}
    m_RemovedComponents: []
  m_ParentPrefab: {fileID: 0}
  m_RootGameObject: {fileID: 116668}
  m_IsPrefabParent: 1
